<?xml version="1.0" encoding="utf-8"?>
<!-- Generator: Adobe Illustrator 23.0.3, SVG Export Plug-In . SVG Version: 6.00 Build 0)  -->
<svg version="1.1" id="Layer_1" xmlns="http://www.w3.org/2000/svg" xmlns:xlink="http://www.w3.org/1999/xlink" x="0px" y="0px"
	 viewBox="0 0 519 502.4" style="enable-background:new 0 0 519 502.4;" xml:space="preserve">
<style type="text/css">
	.st0{fill:#F5F7FF;}
	.st1{fill:#FFDDA1;}
	.st2{fill:none;stroke:#6AA5FE;stroke-linecap:round;stroke-linejoin:round;stroke-miterlimit:10;}
	.st3{fill:#7DA8FF;}
	.st4{fill:none;stroke:#2A294F;stroke-width:0.7798;stroke-linecap:round;stroke-linejoin:round;stroke-miterlimit:10;}
	.st5{fill:#6A7E9C;}
	.st6{fill:#7E95B7;}
	.st7{clip-path:url(#SVGID_2_);fill:#49658E;}
	.st8{opacity:0.59;fill:#FFFFFF;}
	.st9{fill:#16396D;}
	.st10{fill:#FFFFFF;}
	.st11{fill:#FCFCFC;}
	.st12{fill:none;}
	.st13{clip-path:url(#SVGID_4_);fill:#6A7E9C;}
	.st14{clip-path:url(#SVGID_6_);fill:#49658E;}
	.st15{opacity:0.38;fill:#7E95B7;}
	.st16{clip-path:url(#SVGID_8_);fill:#6A7E9C;}
	.st17{clip-path:url(#SVGID_10_);fill:#49658E;}
	.st18{clip-path:url(#SVGID_12_);fill:#6A7E9C;}
	.st19{fill:#A6CAFF;}
	.st20{fill:none;stroke:#1A55B5;stroke-width:0.8675;stroke-linecap:round;stroke-linejoin:round;stroke-miterlimit:10;}
	.st21{fill:none;stroke:#6AA5FE;stroke-width:0.8675;stroke-linecap:round;stroke-linejoin:round;stroke-miterlimit:10;}
	.st22{fill:#527EE9;}
</style>
<path class="st0" d="M39.2,287.5c3.3,3.7,6.7,7.2,10.2,10.5c20.8,19.2,33.2,46,36.1,74.6c3.6,34.6,19.2,67.7,46.9,92.6
	c56.5,50.8,145.2,48.5,202.5-5.3l1.2-1.2c28.5-27.3,60.1-51.3,95-69.4c17.1-8.8,32.9-21,46.4-36.6c50.8-58.4,50.6-145.5-0.5-200.3
	c-33.3-35.6-80-50.3-125.2-44.5c-33.9,4.3-67.7-5.9-91.4-29.6l-2.1-2.1c-60.2-57.6-158.2-52.4-216,12.6C-8.4,146-9.8,232,39.2,287.5
	z"/>
<path class="st1" d="M113.4,464.1c-4.5-5.2-10.3-9.8-12.1-16.4c-1.3-4.8-0.3-10,0.2-14.9c0.5-5,0.3-10.5-2.9-14.3
	c-2.7-3.2-6.9-4.5-10.9-5.4s-8.3-1.4-11.8-3.5c-5.8-3.3-4.7-9-7.8-14c-3.5-5.6-11.7-12.7-18.7-9c-7.4,3.9-6.2,15.9-1.3,21.1
	c3.3,3.5,7.5,6.8,7.9,11.6c0.7,7.2-7.5,13.6-5.2,20.5c1.7,5.1,8,6.8,11.2,11.1c3.1,4.2,2.5,10.2,0.7,15.1c-1.8,4.9-4.7,9.5-5.9,14.6
	c-2.3,10.5,5.9,17.8,15.3,20.1c8.6,2.2,27.3,1.1,27.3,1.1c6.6-2.3,14-8.2,17.7-14.5c2.8-4.8,3.1-10.9,1-16.1
	C116.9,468.6,115.3,466.3,113.4,464.1z"/>
<path class="st2" d="M57.7,397.9c0,0,31.8,49.1,35.3,103.7"/>
<path class="st3" d="M29.3,464.2c0.5-0.4,1.2-0.6,2.1-0.7c0.1,0,0.1,0,0.2,0c3,0,5.9,1.9,8.8,5.6c2.2,2.8,4.1,6,5.6,9.6
	c-1-1-2.2-2-3.6-2.8c-1.9-1.2-3.9-2.1-5.8-3c-1.5-0.7-3.1-1.4-4.5-2.3c-1.2-0.7-2.5-1.5-3.2-2.8C28.4,466.7,28.3,465.1,29.3,464.2z"
	/>
<path class="st3" d="M24.4,485c0.3-0.6,0.8-1.1,1.6-1.5c0.1,0,0.1-0.1,0.2-0.1c2.7-1.3,6.2-0.8,10.4,1.3c3.2,1.6,6.2,3.7,9.2,6.3
	c-1.4-0.5-2.8-0.9-4.4-1c-2.2-0.3-4.4-0.2-6.5-0.2c-1.7,0-3.4,0-5.1-0.1c-1.4-0.1-2.9-0.3-4.1-1.1C24.7,487.7,23.9,486.2,24.4,485z"
	/>
<path class="st3" d="M31.3,497.4c-0.1-0.4-0.1-0.9,0.1-1.5v-0.1c0.7-1.9,2.7-3.3,5.8-4.2c2.3-0.7,4.8-1.1,7.5-1.2
	c-0.9,0.4-1.8,0.9-2.7,1.6c-1.2,0.9-2.3,1.9-3.4,2.9c-0.8,0.8-1.7,1.6-2.6,2.3c-0.7,0.6-1.6,1.2-2.6,1.3
	C32.6,498.7,31.6,498.3,31.3,497.4z"/>
<path class="st4" d="M55.7,501.9c0,0-0.1-19.5-23.9-36.1"/>
<path class="st4" d="M55.7,501.9c0,0-7.3-15.7-27.1-15.7"/>
<path class="st4" d="M44.9,490.6c0,0-3.8-0.3-11.9,5.8"/>
<g>
	<g>
		<path class="st5" d="M203.6,340.7c-3.4,0-7.3,0.6-10.7-0.3c-0.4-0.1-0.3-0.6,0-0.7c3.3-1.3,7.3-0.9,10.7-0.6
			C204.6,339.1,204.7,340.7,203.6,340.7z M214.4,338.9c-2.2-0.2-4.1-0.2-6.2,0.6c-0.2,0.1-0.2,0.5,0.1,0.6c2.1,0.3,4.1,0.2,6.1,0.2
			C215.3,340.4,215.3,339,214.4,338.9z M84.8,343.6c-2.6,0.9-4.1,3-4.9,5.5c-0.1,0.3,0.3,0.5,0.5,0.2c1.1-2,3-3.4,4.9-4.6
			C85.9,344.3,85.5,343.3,84.8,343.6z M88.3,341.6c-0.2,0.1-0.3,0.1-0.5,0.2c-0.1,0.1-0.2,0.2-0.3,0.3c-0.2,0.2,0,0.4,0.2,0.4
			c0.3,0,0.6,0,0.9-0.1C89.2,342.3,88.9,341.4,88.3,341.6z M85.9,465.8c-1-0.6-1.9-1.4-2.6-2.2c-0.4-0.4-0.8-0.8-1.1-1.2
			c-0.3-0.3-0.5-0.7-0.9-0.8c-0.1,0-0.2,0-0.2,0.1c-0.5,0.8,0.5,2.4,0.9,3.1c0.8,1.1,1.9,1.9,3.2,2.5
			C86,467.7,86.8,466.4,85.9,465.8z M91.8,467.9c-0.8,0-1.7-0.2-2.5-0.4c-0.1-0.1-0.2,0.2-0.1,0.3c0.3,0.3,0.7,0.7,1.1,0.8
			c0.5,0.2,1,0.2,1.5,0.2C92.3,468.8,92.3,467.9,91.8,467.9z M342.4,353.7c-0.2-1.9-0.7-3.6-1.5-5.3c-0.6-1.2-1.6-3.1-3.1-3.5
			c0,0,0,0,0,0c0.1,1.3,1.1,2.5,1.6,3.7c0.7,1.7,1.2,3.5,1.5,5.3C341,354.8,342.5,354.6,342.4,353.7z M342.4,357.5
			c0-0.3-0.4-0.3-0.5,0c-0.1,1.1-0.2,2.2-0.3,3.3c0,0.6,1,0.6,1,0C342.6,359.7,342.5,358.6,342.4,357.5z M343.4,384.4
			c0-0.3-0.5-0.3-0.5,0c-0.6,8.5-0.9,17.1-0.5,25.7c0.1,0.9,1.4,0.9,1.5,0C344.3,401.6,343.9,393,343.4,384.4z M343.4,413.6
			c0-0.1-0.2-0.2-0.3-0.1c-1.2,1.5-1.2,4.2-1.2,6c0,0.7,1.2,0.7,1.2,0c0-1.1,0.1-2.1,0.2-3.2C343.3,415.4,343.6,414.5,343.4,413.6z
			 M343.2,379.4c0-0.4-0.6-0.4-0.7,0c0,1-0.1,2,0,3c0,0.5,0.7,0.5,0.7,0C343.3,381.4,343.2,380.4,343.2,379.4z M108.6,468.7
			c-2.5,0-5.5-0.5-7.8,0.2c0,0,0,0.1,0,0.1c2.4,0.8,5.4,0.4,7.8,0.5C109.1,469.5,109.1,468.7,108.6,468.7z M76.4,400.3
			c0-0.3-0.5-0.3-0.5,0c-0.1,2-0.1,4-0.2,6c0,0.5,0.8,0.5,0.8,0C76.5,404.3,76.4,402.3,76.4,400.3z"/>
		<g>
			<path class="st6" d="M316.8,470.6H109.8c-14.6,0-26.4-11.8-26.4-26.4v-70.8c0-14.6,11.8-26.4,26.4-26.4h207.1
				c14.6,0,26.4,11.8,26.4,26.4v70.8C343.2,458.8,331.4,470.6,316.8,470.6z"/>
			<path class="st5" d="M311.7,466.1H104.6c-14.6,0-26.4-11.8-26.4-26.4v-70.8c0-14.6,11.8-26.4,26.4-26.4h207.1
				c14.6,0,26.4,11.8,26.4,26.4v70.8C338.1,454.3,326.2,466.1,311.7,466.1z"/>
			<g>
				<defs>
					<path id="SVGID_1_" d="M311.7,466.1H104.6c-14.6,0-26.4-11.8-26.4-26.4v-70.8c0-14.6,11.8-26.4,26.4-26.4h207.1
						c14.6,0,26.4,11.8,26.4,26.4v70.8C338.1,454.3,326.2,466.1,311.7,466.1z"/>
				</defs>
				<clipPath id="SVGID_2_">
					<use xlink:href="#SVGID_1_"  style="overflow:visible;"/>
				</clipPath>
				<path class="st7" d="M339.8,482.2H150.9v0c0-27.7,22.4-50.1,50.1-50.1h138.8V482.2z"/>
			</g>
			<path class="st1" d="M199.1,440.4c0.9,1.1,1.5,2.4,1.9,3.8c0.2,0.3,0.5,0.5,0.8,0.6c1.3-0.1,2.7,0.2,4.2,0.6
				c0.9,0.1,1.3,1.2,0.6,1.9c-1,1.2-2,2.2-3,3c-0.3,0.3-0.4,0.6-0.3,1c0.4,1.3,0.7,2.7,0.7,4.2c0.2,0.9-0.8,1.6-1.6,1.2
				c-1.6-0.6-2.9-1.2-3.8-2c-0.3-0.2-0.7-0.2-1,0c-1,0.9-2.3,1.5-3.8,2c-0.8,0.4-1.7-0.3-1.6-1.2c0.1-1.6,0.2-3.1,0.7-4.2
				c0.1-0.4-0.1-0.7-0.3-1c-1.2-0.7-2.1-1.7-3-3c-0.6-0.6-0.3-1.7,0.6-1.9c1.5-0.5,2.9-0.7,4.2-0.6c0.4-0.1,0.7-0.3,0.8-0.6
				c0.3-1.3,1-2.6,1.9-3.8C197.6,439.6,198.7,439.6,199.1,440.4z"/>
			<path class="st8" d="M200.6,444.6c-0.2-0.6-0.3-1.2-0.6-1.7c-0.3-0.5-0.7-0.9-1-1.4c-0.2-0.2-0.5,0-0.5,0.2c0,0.6,0,1.2,0.2,1.7
				c0.2,0.6,0.5,1.1,0.8,1.6C199.8,445.6,200.7,445.3,200.6,444.6z"/>
			<path class="st1" d="M228.2,440.4c0.9,1.1,1.5,2.4,1.9,3.8c0.2,0.3,0.5,0.5,0.8,0.6c1.3-0.1,2.7,0.2,4.2,0.6
				c0.9,0.1,1.3,1.2,0.6,1.9c-1,1.2-2,2.2-3,3c-0.3,0.3-0.4,0.6-0.3,1c0.4,1.3,0.7,2.7,0.7,4.2c0.2,0.9-0.8,1.6-1.6,1.2
				c-1.6-0.6-2.9-1.2-3.8-2c-0.3-0.2-0.7-0.2-1,0c-1,0.9-2.3,1.5-3.8,2c-0.8,0.4-1.7-0.3-1.6-1.2c0.1-1.6,0.2-3.1,0.7-4.2
				c0.1-0.4-0.1-0.7-0.3-1c-1.2-0.7-2.1-1.7-3-3c-0.6-0.6-0.3-1.7,0.6-1.9c1.5-0.5,2.9-0.7,4.2-0.6c0.4-0.1,0.7-0.3,0.8-0.6
				c0.3-1.3,1-2.6,1.9-3.8C226.7,439.6,227.8,439.6,228.2,440.4z"/>
			<path class="st8" d="M229.4,444.6c-0.2-0.6-0.3-1.2-0.6-1.7c-0.3-0.5-0.7-0.9-1-1.4c-0.2-0.2-0.5,0-0.5,0.2c0,0.6,0,1.2,0.2,1.7
				c0.2,0.6,0.5,1.1,0.8,1.6C228.6,445.6,229.6,445.3,229.4,444.6z"/>
			<path class="st1" d="M257.3,440.4c0.9,1.1,1.5,2.4,1.9,3.8c0.2,0.3,0.5,0.5,0.8,0.6c1.3-0.1,2.7,0.2,4.2,0.6
				c0.9,0.1,1.3,1.2,0.6,1.9c-1,1.2-2,2.2-3,3c-0.3,0.3-0.4,0.6-0.3,1c0.4,1.3,0.7,2.7,0.7,4.2c0.2,0.9-0.8,1.6-1.6,1.2
				c-1.6-0.6-2.9-1.2-3.8-2c-0.3-0.2-0.7-0.2-1,0c-1,0.9-2.3,1.5-3.8,2c-0.8,0.4-1.7-0.3-1.6-1.2c0.1-1.6,0.2-3.1,0.7-4.2
				c0.1-0.4-0.1-0.7-0.3-1c-1.2-0.7-2.1-1.7-3-3c-0.6-0.6-0.3-1.7,0.6-1.9c1.5-0.5,2.9-0.7,4.2-0.6c0.4-0.1,0.7-0.3,0.8-0.6
				c0.3-1.3,1-2.6,1.9-3.8C255.8,439.6,256.9,439.6,257.3,440.4z"/>
			<path class="st8" d="M258.5,444.6c-0.2-0.6-0.3-1.2-0.6-1.7c-0.3-0.5-0.7-0.9-1-1.4c-0.2-0.2-0.5,0-0.5,0.2c0,0.6,0,1.2,0.2,1.7
				c0.2,0.6,0.5,1.1,0.8,1.6C257.7,445.6,258.7,445.3,258.5,444.6z"/>
			<path class="st1" d="M286.4,440.4c0.9,1.1,1.5,2.4,1.9,3.8c0.2,0.3,0.5,0.5,0.8,0.6c1.3-0.1,2.7,0.2,4.2,0.6
				c0.9,0.1,1.3,1.2,0.6,1.9c-1,1.2-2,2.2-3,3c-0.3,0.3-0.4,0.6-0.3,1c0.4,1.3,0.7,2.7,0.7,4.2c0.2,0.9-0.8,1.6-1.6,1.2
				c-1.6-0.6-2.9-1.2-3.8-2c-0.3-0.2-0.7-0.2-1,0c-1,0.9-2.3,1.5-3.8,2c-0.8,0.4-1.7-0.3-1.6-1.2c0.1-1.6,0.2-3.1,0.7-4.2
				c0.1-0.4-0.1-0.7-0.3-1c-1.2-0.7-2.1-1.7-3-3c-0.6-0.6-0.3-1.7,0.6-1.9c1.5-0.5,2.9-0.7,4.2-0.6c0.4-0.1,0.7-0.3,0.8-0.6
				c0.3-1.3,1-2.6,1.9-3.8C284.9,439.6,286,439.6,286.4,440.4z"/>
			<path class="st8" d="M287.6,444.6c-0.2-0.6-0.3-1.2-0.6-1.7c-0.3-0.5-0.7-0.9-1-1.4c-0.2-0.2-0.5,0-0.5,0.2c0,0.6,0,1.2,0.2,1.7
				c0.2,0.6,0.5,1.1,0.8,1.6C286.8,445.6,287.8,445.3,287.6,444.6z"/>
			<path class="st1" d="M315.5,440.4c0.9,1.1,1.5,2.4,1.9,3.8c0.2,0.3,0.5,0.5,0.8,0.6c1.3-0.1,2.7,0.2,4.2,0.6
				c0.9,0.1,1.3,1.2,0.6,1.9c-1,1.2-2,2.2-3,3c-0.3,0.3-0.4,0.6-0.3,1c0.4,1.3,0.7,2.7,0.7,4.2c0.2,0.9-0.8,1.6-1.6,1.2
				c-1.6-0.6-2.9-1.2-3.8-2c-0.3-0.2-0.7-0.2-1,0c-1,0.9-2.3,1.5-3.8,2c-0.8,0.4-1.7-0.3-1.6-1.2c0.1-1.6,0.2-3.1,0.7-4.2
				c0.1-0.4-0.1-0.7-0.3-1c-1.2-0.7-2.1-1.7-3-3c-0.6-0.6-0.3-1.7,0.6-1.9c1.5-0.5,2.9-0.7,4.2-0.6c0.4-0.1,0.7-0.3,0.8-0.6
				c0.3-1.3,1-2.6,1.9-3.8C314,439.6,315.1,439.6,315.5,440.4z"/>
			<path class="st8" d="M316.7,444.6c-0.2-0.6-0.3-1.2-0.6-1.7c-0.3-0.5-0.7-0.9-1-1.4c-0.2-0.2-0.5,0-0.5,0.2c0,0.6,0,1.2,0.2,1.7
				c0.2,0.6,0.5,1.1,0.8,1.6C315.9,445.6,316.8,445.3,316.7,444.6z"/>
			<path class="st9" d="M340.7,456c0-0.2-0.3-0.4-0.5-0.1c-0.8,1.3-1.3,2.8-2.2,4c-0.9,1.4-2,2.6-3.3,3.7c-0.6,0.5,0.2,1.6,0.9,1.1
				C338.3,462.8,341.2,459.4,340.7,456z M325.5,467.6c-1.7,0.1-3.4,0.3-5,0.5c-0.3,0-0.3,0.5,0,0.5c1.7,0,3.4,0,5-0.1
				C326.1,468.5,326.1,467.6,325.5,467.6z"/>
		</g>
		<path class="st10" d="M256.4,373.9c0,1.7-1.4,3.1-3.1,3.2l-55.6,0.4c-1.7,0-3.1-1.4-3.2-3.1v-1.3c0-1.7,1.4-3.1,3.1-3.2l55.6-0.4
			c1.7,0,3.1,1.4,3.2,3.1V373.9z"/>
		<rect x="195.6" y="393.5" class="st11" width="129.5" height="3.1"/>
		<rect x="195.6" y="401.3" class="st11" width="129.5" height="3.1"/>
		<rect x="195.6" y="409.3" class="st11" width="114.9" height="3.1"/>
	</g>
	<path class="st9" d="M152.9,455.5c-0.5,1.8-2.9,7.4-3.2,8c-0.1,0.1-0.3,0.1-0.3,0c-0.1-3,0.5-6,2-8.6
		C151.9,453.9,153.2,454.4,152.9,455.5z M158.5,445.9c-0.7,0.6-1.3,1.2-1.7,2c-0.4,0.7-0.7,1.5-1,2.4c-0.1,0.4,0.5,0.7,0.7,0.3
		c0.8-1.3,1.9-2.6,3-3.7C160,446.3,159.1,445.4,158.5,445.9z M316.2,426.9c-1.3,0-2.5,0-3.8,0.1c-1,0.1-2,0-2.9,0.4
		c-0.2,0.1-0.1,0.3,0,0.4c1,0.3,2.1,0.2,3.1,0.2c1.2,0,2.3-0.1,3.5-0.1C316.7,427.7,316.8,426.9,316.2,426.9z M324.5,426.4
		c-1,0-1.9,0-2.9,0.1c-0.8,0.1-1.6,0.1-2.2,0.5c-0.2,0.1-0.2,0.4,0,0.5c0.7,0.4,1.5,0.3,2.2,0.3c1,0,1.9-0.1,2.9-0.2
		C325.3,427.6,325.3,426.4,324.5,426.4z M183.4,429.1c-2,0.5-4,1.1-5.8,2.2c-0.3,0.2-0.2,0.8,0.2,0.8c2-0.2,4-0.8,5.9-1.6
		C184.6,430.1,184.3,428.8,183.4,429.1z"/>
	<circle class="st12" cx="130.8" cy="404.5" r="40.4"/>
	<path class="st10" d="M98.5,435.1c-1.2-1-2.3-2.5-2.4-4.1c0-0.2,0.3-0.3,0.5-0.2c0.5,0.5,0.9,1.1,1.3,1.8c0.5,0.6,0.9,1.3,1.4,1.9
		C99.6,435,98.9,435.4,98.5,435.1z M103.3,438.6c-0.3-0.4-0.7-0.7-1-1.1c-0.3-0.3-0.7-0.6-1.1-0.8c-0.2-0.1-0.4,0.1-0.3,0.3
		c0.2,0.4,0.5,0.8,0.8,1.1c0.4,0.3,0.7,0.7,1.1,1C103.1,439.5,103.6,438.9,103.3,438.6z M158,370.1c-1.1-1.3-2.6-2.9-4.3-3.4
		c-0.3-0.1-0.4,0.3-0.3,0.4c0.5,0.7,1.3,1.2,1.9,1.8c0.6,0.6,1.3,1.2,1.9,1.9C157.7,371.4,158.4,370.7,158,370.1z M161.2,374.2
		c-0.5-0.8-1-1.8-1.8-2.2c-0.1-0.1-0.3,0-0.3,0.2c0,0.2,0,0.4,0.1,0.6c0.1,0.2,0.3,0.5,0.4,0.7c0.3,0.5,0.6,0.9,0.9,1.3
		C160.8,375.2,161.5,374.7,161.2,374.2z M97.8,376.1c-1.3,1.1-2.4,2.6-3.2,4c-0.2,0.4,0.4,0.7,0.6,0.4c0.9-1.4,2-2.7,3.1-3.9
		C98.6,376.2,98.2,375.8,97.8,376.1z M92.4,382.8c-0.6,0.9-1,1.9-1.1,2.9c0,0.3,0.3,0.4,0.4,0.1c0.2-1,0.7-1.9,1.3-2.7
		C93.1,382.8,92.6,382.5,92.4,382.8z M92.6,378.5c-0.2,0.3-0.4,0.6-0.5,1c-0.1,0.2,0.2,0.4,0.4,0.2l0.6-0.9
		C93.2,378.5,92.8,378.2,92.6,378.5z M101.7,371.3c-1,0.6-1.8,1.3-2.5,2.2c-0.2,0.2,0.1,0.5,0.3,0.3c0.8-0.7,1.6-1.3,2.5-1.9
		C102.5,371.7,102.1,371.1,101.7,371.3z M138.3,361.7c-1.2-0.2-2.4-0.2-3.7-0.1c-0.3,0-0.3,0.4,0,0.4c1.2,0,2.4,0.1,3.6,0.3
		C138.6,362.4,138.7,361.8,138.3,361.7z M156.1,439.3c-1.1,0.9-2.3,1.7-3.6,2.4c-0.2,0.1,0,0.5,0.2,0.4c1.3-0.6,2.6-1.4,3.6-2.4
		C156.6,439.4,156.4,439.1,156.1,439.3z M160.3,435.2c-0.5,0.4-1,0.9-1.5,1.3c-0.1,0.1,0.1,0.3,0.2,0.2c0.5-0.4,1-0.9,1.5-1.3
		C160.7,435.3,160.5,435.1,160.3,435.2z M134.3,446.4c-0.8,0.1-1.7,0.3-2.5,0.5c-0.2,0-0.1,0.3,0,0.3c0.8-0.1,1.7-0.2,2.5-0.4
		C134.5,446.7,134.5,446.4,134.3,446.4z M91.2,421.9c-1.2-2.2-1.8-4.7-2.4-7.1c-0.1-0.4-0.7-0.4-0.7,0c-0.5,2.9,0.3,5.4,1.9,7.8
		C90.4,423.5,91.7,422.8,91.2,421.9z M170.4,388.5c-0.1-0.2-0.4-0.1-0.3,0.1c2.4,6.1,3.5,12.4,2.9,19c-0.1,0.7,1,0.7,1.1,0
		C175,400.9,173.9,394.4,170.4,388.5z"/>
	<g>
		<circle class="st10" cx="130.8" cy="404.5" r="40.4"/>
		<g>
			<defs>
				<path id="SVGID_3_" d="M173,445.9c0-4.1-6.4-6.2-6.4-6.2c-16.3-7.7-23-9.6-23-9.6c-0.6-1.1-1-5.8-1-5.8
					c-0.9-0.6-3.4-0.7-3.4-0.7c2-4,4.4-7.5,4.4-7.5c1.8-2.8,1.6-8.7,1.6-8.7c1-0.9,1.1-1.8,1.1-1.8c-0.3-2.3,0.6-5,0.6-5
					c0-1.1-0.9-1-0.9-1c3.7-12.9,1.6-14.2,1.6-14.2c-0.3-0.3-1-0.4-1-0.4v-0.1c0.6-0.3,0.1-1.7,0.1-1.7c-0.6-1.6-3.7-4.3-3.7-4.3
					c-5.4-6.1-21.6-5.7-21.6-5.7c0.4,1.4-2.8,5-2.8,5c-1.1,1.4-1.1,3-1.1,3c0.3,3-2.3,7.8-2.3,7.8c-0.1,3.1,2.3,10.9,2.3,10.9
					c-1.1-0.3-0.9,1.1-0.9,1.1c0.7,2.1,0.6,4.7,0.6,4.7c0,1,1.1,1.8,1.1,1.8c-0.1,5.8,1.7,8.7,1.7,8.7c1.6,2.1,4.4,7.4,4.4,7.4
					s-1.8,0-3.4,0.7c0,0,0,3.1-0.9,5.8c0,0-10.8,4-22.8,9.9c0,0-6.4,2.3-6.4,6.4L173,445.9z"/>
			</defs>
			<clipPath id="SVGID_4_">
				<use xlink:href="#SVGID_3_"  style="overflow:visible;"/>
			</clipPath>
			<circle class="st13" cx="132" cy="406.8" r="40.4"/>
		</g>
	</g>
	<path class="st10" d="M220.7,386c0,0.7-0.6,1.3-1.3,1.3l-22.5,0.2c-0.7,0-1.3-0.6-1.3-1.3v-0.5c0-0.7,0.6-1.3,1.3-1.3l22.5-0.2
		c0.7,0,1.3,0.6,1.3,1.3V386z"/>
</g>
<g>
	<g>
		<path class="st5" d="M349.5,187.2c-3.4,0-7.3,0.6-10.7-0.3c-0.4-0.1-0.3-0.6,0-0.7c3.3-1.3,7.3-0.9,10.7-0.6
			C350.6,185.6,350.6,187.2,349.5,187.2z M360.4,185.4c-2.2-0.2-4.1-0.2-6.2,0.6c-0.2,0.1-0.2,0.5,0.1,0.6c2.1,0.3,4.1,0.2,6.1,0.2
			C361.3,186.9,361.3,185.5,360.4,185.4z M230.7,190.1c-2.6,0.9-4.1,3-4.9,5.5c-0.1,0.3,0.3,0.5,0.5,0.2c1.1-2,3-3.4,4.9-4.6
			C231.8,190.8,231.4,189.8,230.7,190.1z M234.3,188.1c-0.2,0.1-0.3,0.1-0.5,0.2c-0.1,0.1-0.2,0.2-0.3,0.3c-0.2,0.2,0,0.4,0.2,0.4
			c0.3,0,0.6,0,0.9-0.1C235.1,188.8,234.9,187.9,234.3,188.1z M231.8,312.3c-1-0.6-1.9-1.4-2.6-2.2c-0.4-0.4-0.8-0.8-1.1-1.2
			c-0.3-0.3-0.5-0.7-0.9-0.8c-0.1,0-0.2,0-0.2,0.1c-0.5,0.8,0.5,2.4,0.9,3.1c0.8,1.1,1.9,1.9,3.2,2.5
			C231.9,314.2,232.7,312.9,231.8,312.3z M237.7,314.4c-0.8,0-1.7-0.2-2.5-0.4c-0.1-0.1-0.2,0.2-0.1,0.3c0.3,0.3,0.7,0.7,1.1,0.8
			c0.5,0.2,1,0.2,1.5,0.2C238.3,315.3,238.3,314.4,237.7,314.4z M488.3,200.2c-0.2-1.9-0.7-3.6-1.5-5.3c-0.6-1.2-1.6-3.1-3.1-3.5
			c0,0,0,0,0,0c0.1,1.3,1.1,2.5,1.6,3.7c0.7,1.7,1.2,3.5,1.5,5.3C486.9,201.3,488.4,201.1,488.3,200.2z M488.3,204
			c0-0.3-0.4-0.3-0.5,0c-0.1,1.1-0.2,2.2-0.3,3.3c0,0.6,1,0.6,1,0C488.5,206.2,488.4,205.1,488.3,204z M489.3,230.9
			c0-0.3-0.5-0.3-0.5,0c-0.6,8.5-0.9,17.1-0.5,25.7c0.1,0.9,1.4,0.9,1.5,0C490.3,248.1,489.9,239.5,489.3,230.9z M489.4,260.1
			c0-0.1-0.2-0.2-0.3-0.1c-1.2,1.5-1.2,4.2-1.2,6c0,0.7,1.2,0.7,1.2,0c0-1.1,0.1-2.1,0.2-3.2C489.2,261.9,489.5,261,489.4,260.1z
			 M489.2,225.9c0-0.4-0.6-0.4-0.7,0c0,1-0.1,2,0,3c0,0.5,0.7,0.5,0.7,0C489.2,227.9,489.2,226.9,489.2,225.9z M254.6,315.2
			c-2.5,0-5.5-0.5-7.8,0.2c0,0,0,0.1,0,0.1c2.4,0.8,5.4,0.4,7.8,0.5C255.1,316,255.1,315.2,254.6,315.2z M222.3,246.8
			c0-0.3-0.5-0.3-0.5,0c-0.1,2-0.1,4-0.2,6c0,0.5,0.8,0.5,0.8,0C222.4,250.8,222.4,248.8,222.3,246.8z"/>
		<g>
			<path class="st6" d="M462.8,317.1H255.7c-14.6,0-26.4-11.8-26.4-26.4v-70.8c0-14.6,11.8-26.4,26.4-26.4h207.1
				c14.6,0,26.4,11.8,26.4,26.4v70.8C489.2,305.3,477.3,317.1,462.8,317.1z"/>
			<path class="st5" d="M457.6,312.6H250.6c-14.6,0-26.4-11.8-26.4-26.4v-70.8c0-14.6,11.8-26.4,26.4-26.4h207.1
				c14.6,0,26.4,11.8,26.4,26.4v70.8C484,300.8,472.2,312.6,457.6,312.6z"/>
			<g>
				<defs>
					<path id="SVGID_5_" d="M457.6,312.6H250.6c-14.6,0-26.4-11.8-26.4-26.4v-70.8c0-14.6,11.8-26.4,26.4-26.4h207.1
						c14.6,0,26.4,11.8,26.4,26.4v70.8C484,300.8,472.2,312.6,457.6,312.6z"/>
				</defs>
				<clipPath id="SVGID_6_">
					<use xlink:href="#SVGID_5_"  style="overflow:visible;"/>
				</clipPath>
				<path class="st14" d="M485.8,328.7H296.8v0c0-27.7,22.4-50.1,50.1-50.1h138.8V328.7z"/>
			</g>
			<path class="st1" d="M345.1,286.9c0.9,1.1,1.5,2.4,1.9,3.8c0.2,0.3,0.5,0.5,0.8,0.6c1.3-0.1,2.7,0.2,4.2,0.6
				c0.9,0.1,1.3,1.2,0.6,1.9c-1,1.2-2,2.2-3,3c-0.3,0.3-0.4,0.6-0.3,1c0.4,1.3,0.7,2.7,0.7,4.2c0.2,0.9-0.8,1.6-1.6,1.2
				c-1.6-0.6-2.9-1.2-3.8-2c-0.3-0.2-0.7-0.2-1,0c-1,0.9-2.3,1.5-3.8,2c-0.8,0.4-1.7-0.3-1.6-1.2c0.1-1.6,0.2-3.1,0.7-4.2
				c0.1-0.4-0.1-0.7-0.3-1c-1.2-0.7-2.1-1.7-3-3c-0.6-0.6-0.3-1.7,0.6-1.9c1.5-0.5,2.9-0.7,4.2-0.6c0.4-0.1,0.7-0.3,0.8-0.6
				c0.3-1.3,1-2.6,1.9-3.8C343.5,286.1,344.7,286.1,345.1,286.9z"/>
			<path class="st8" d="M346.5,291.1c-0.2-0.6-0.3-1.2-0.6-1.7c-0.3-0.5-0.7-0.9-1-1.4c-0.2-0.2-0.5,0-0.5,0.2c0,0.6,0,1.2,0.2,1.7
				c0.2,0.6,0.5,1.1,0.8,1.6C345.8,292.1,346.7,291.8,346.5,291.1z"/>
			<path class="st1" d="M374.2,286.9c0.9,1.1,1.5,2.4,1.9,3.8c0.2,0.3,0.5,0.5,0.8,0.6c1.3-0.1,2.7,0.2,4.2,0.6
				c0.9,0.1,1.3,1.2,0.6,1.9c-1,1.2-2,2.2-3,3c-0.3,0.3-0.4,0.6-0.3,1c0.4,1.3,0.7,2.7,0.7,4.2c0.2,0.9-0.8,1.6-1.6,1.2
				c-1.6-0.6-2.9-1.2-3.8-2c-0.3-0.2-0.7-0.2-1,0c-1,0.9-2.3,1.5-3.8,2c-0.8,0.4-1.7-0.3-1.6-1.2c0.1-1.6,0.2-3.1,0.7-4.2
				c0.1-0.4-0.1-0.7-0.3-1c-1.2-0.7-2.1-1.7-3-3c-0.6-0.6-0.3-1.7,0.6-1.9c1.5-0.5,2.9-0.7,4.2-0.6c0.4-0.1,0.7-0.3,0.8-0.6
				c0.3-1.3,1-2.6,1.9-3.8C372.6,286.1,373.8,286.1,374.2,286.9z"/>
			<path class="st8" d="M375.3,291.1c-0.2-0.6-0.3-1.2-0.6-1.7c-0.3-0.5-0.7-0.9-1-1.4c-0.2-0.2-0.5,0-0.5,0.2c0,0.6,0,1.2,0.2,1.7
				c0.2,0.6,0.5,1.1,0.8,1.6C374.6,292.1,375.5,291.8,375.3,291.1z"/>
			<path class="st1" d="M403.3,286.9c0.9,1.1,1.5,2.4,1.9,3.8c0.2,0.3,0.5,0.5,0.8,0.6c1.3-0.1,2.7,0.2,4.2,0.6
				c0.9,0.1,1.3,1.2,0.6,1.9c-1,1.2-2,2.2-3,3c-0.3,0.3-0.4,0.6-0.3,1c0.4,1.3,0.7,2.7,0.7,4.2c0.2,0.9-0.8,1.6-1.6,1.2
				c-1.6-0.6-2.9-1.2-3.8-2c-0.3-0.2-0.7-0.2-1,0c-1,0.9-2.3,1.5-3.8,2c-0.8,0.4-1.7-0.3-1.6-1.2c0.1-1.6,0.2-3.1,0.7-4.2
				c0.1-0.4-0.1-0.7-0.3-1c-1.2-0.7-2.1-1.7-3-3c-0.6-0.6-0.3-1.7,0.6-1.9c1.5-0.5,2.9-0.7,4.2-0.6c0.4-0.1,0.7-0.3,0.8-0.6
				c0.3-1.3,1-2.6,1.9-3.8C401.7,286.1,402.9,286.1,403.3,286.9z"/>
			<path class="st8" d="M404.4,291.1c-0.2-0.6-0.3-1.2-0.6-1.7c-0.3-0.5-0.7-0.9-1-1.4c-0.2-0.2-0.5,0-0.5,0.2c0,0.6,0,1.2,0.2,1.7
				c0.2,0.6,0.5,1.1,0.8,1.6C403.7,292.1,404.6,291.8,404.4,291.1z"/>
			<path class="st1" d="M432.4,286.9c0.9,1.1,1.5,2.4,1.9,3.8c0.2,0.3,0.5,0.5,0.8,0.6c1.3-0.1,2.7,0.2,4.2,0.6
				c0.9,0.1,1.3,1.2,0.6,1.9c-1,1.2-2,2.2-3,3c-0.3,0.3-0.4,0.6-0.3,1c0.4,1.3,0.7,2.7,0.7,4.2c0.2,0.9-0.8,1.6-1.6,1.2
				c-1.6-0.6-2.9-1.2-3.8-2c-0.3-0.2-0.7-0.2-1,0c-1,0.9-2.3,1.5-3.8,2c-0.8,0.4-1.7-0.3-1.6-1.2c0.1-1.6,0.2-3.1,0.7-4.2
				c0.1-0.4-0.1-0.7-0.3-1c-1.2-0.7-2.1-1.7-3-3c-0.6-0.6-0.3-1.7,0.6-1.9c1.5-0.5,2.9-0.7,4.2-0.6c0.4-0.1,0.7-0.3,0.8-0.6
				c0.3-1.3,1-2.6,1.9-3.8C430.8,286.1,432,286.1,432.4,286.9z"/>
			<path class="st8" d="M433.5,291.1c-0.2-0.6-0.3-1.2-0.6-1.7c-0.3-0.5-0.7-0.9-1-1.4c-0.2-0.2-0.5,0-0.5,0.2c0,0.6,0,1.2,0.2,1.7
				c0.2,0.6,0.5,1.1,0.8,1.6C432.8,292.1,433.7,291.8,433.5,291.1z"/>
			<path class="st0" d="M461.5,286.9c0.9,1.1,1.5,2.4,1.9,3.8c0.2,0.3,0.5,0.5,0.8,0.6c1.3-0.1,2.7,0.2,4.2,0.6
				c0.9,0.1,1.3,1.2,0.6,1.9c-1,1.2-2,2.2-3,3c-0.3,0.3-0.4,0.6-0.3,1c0.4,1.3,0.7,2.7,0.7,4.2c0.2,0.9-0.8,1.6-1.6,1.2
				c-1.6-0.6-2.9-1.2-3.8-2c-0.3-0.2-0.7-0.2-1,0c-1,0.9-2.3,1.5-3.8,2c-0.8,0.4-1.7-0.3-1.6-1.2c0.1-1.6,0.2-3.1,0.7-4.2
				c0.1-0.4-0.1-0.7-0.3-1c-1.2-0.7-2.1-1.7-3-3c-0.6-0.6-0.3-1.7,0.6-1.9c1.5-0.5,2.9-0.7,4.2-0.6c0.4-0.1,0.7-0.3,0.8-0.6
				c0.3-1.3,1-2.6,1.9-3.8C459.9,286.1,461.1,286.1,461.5,286.9z"/>
			<path class="st15" d="M462.6,291.1c-0.2-0.6-0.3-1.2-0.6-1.7c-0.3-0.5-0.7-0.9-1-1.4c-0.2-0.2-0.5,0-0.5,0.2c0,0.6,0,1.2,0.2,1.7
				c0.2,0.6,0.5,1.1,0.8,1.6C461.9,292.1,462.8,291.8,462.6,291.1z"/>
			<path class="st9" d="M486.7,302.5c0-0.2-0.3-0.4-0.5-0.1c-0.8,1.3-1.3,2.8-2.2,4c-0.9,1.4-2,2.6-3.3,3.7
				c-0.6,0.5,0.2,1.6,0.9,1.1C484.3,309.3,487.1,305.9,486.7,302.5z M471.5,314.1c-1.7,0.1-3.4,0.3-5,0.5c-0.3,0-0.3,0.5,0,0.5
				c1.7,0,3.4,0,5-0.1C472,315,472,314.1,471.5,314.1z"/>
		</g>
		<path class="st10" d="M402.3,220.4c0,1.7-1.4,3.1-3.1,3.2l-55.6,0.4c-1.7,0-3.1-1.4-3.2-3.1v-1.3c0-1.7,1.4-3.1,3.1-3.2l55.6-0.4
			c1.7,0,3.1,1.4,3.2,3.1V220.4z"/>
		<rect x="341.6" y="240" class="st11" width="129.5" height="3.1"/>
		<rect x="341.6" y="247.8" class="st11" width="129.5" height="3.1"/>
		<rect x="341.6" y="255.8" class="st11" width="114.9" height="3.1"/>
	</g>
	<path class="st9" d="M298.9,302c-0.5,1.8-2.9,7.4-3.2,8c-0.1,0.1-0.3,0.1-0.3,0c-0.1-3,0.5-6,2-8.6
		C297.9,300.4,299.2,300.9,298.9,302z M304.5,292.4c-0.7,0.6-1.3,1.2-1.7,2c-0.4,0.7-0.7,1.5-1,2.4c-0.1,0.4,0.5,0.7,0.7,0.3
		c0.8-1.3,1.9-2.6,3-3.7C306,292.7,305.1,291.9,304.5,292.4z M462.1,273.4c-1.3,0-2.5,0-3.8,0.1c-1,0.1-2,0-2.9,0.4
		c-0.2,0.1-0.1,0.3,0,0.4c1,0.3,2.1,0.2,3.1,0.2c1.2,0,2.3-0.1,3.5-0.1C462.6,274.2,462.7,273.4,462.1,273.4z M470.5,272.9
		c-1,0-1.9,0-2.9,0.1c-0.8,0.1-1.6,0.1-2.2,0.5c-0.2,0.1-0.2,0.4,0,0.5c0.7,0.4,1.5,0.3,2.2,0.3c1,0,1.9-0.1,2.9-0.2
		C471.3,274.1,471.3,272.9,470.5,272.9z M329.3,275.6c-2,0.5-4,1.1-5.8,2.2c-0.3,0.2-0.2,0.8,0.2,0.8c2-0.2,4-0.8,5.9-1.6
		C330.5,276.6,330.2,275.3,329.3,275.6z"/>
	<circle class="st12" cx="276.8" cy="251" r="40.4"/>
	<path class="st10" d="M244.5,281.6c-1.2-1-2.3-2.5-2.4-4.1c0-0.2,0.3-0.3,0.5-0.2c0.5,0.5,0.9,1.1,1.3,1.8c0.5,0.6,0.9,1.3,1.4,1.9
		C245.5,281.5,244.8,281.9,244.5,281.6z M249.2,285.1c-0.3-0.4-0.7-0.7-1-1.1c-0.3-0.3-0.7-0.6-1.1-0.8c-0.2-0.1-0.4,0.1-0.3,0.3
		c0.2,0.4,0.5,0.8,0.8,1.1c0.4,0.3,0.7,0.7,1.1,1C249.1,286,249.6,285.4,249.2,285.1z M303.9,216.6c-1.1-1.3-2.6-2.9-4.3-3.4
		c-0.3-0.1-0.4,0.3-0.3,0.4c0.5,0.7,1.3,1.2,1.9,1.8c0.6,0.6,1.3,1.2,1.9,1.9C303.6,217.9,304.4,217.2,303.9,216.6z M307.2,220.7
		c-0.5-0.8-1-1.8-1.8-2.2c-0.1-0.1-0.3,0-0.3,0.2c0,0.2,0,0.4,0.1,0.6c0.1,0.2,0.3,0.5,0.4,0.7c0.3,0.5,0.6,0.9,0.9,1.3
		C306.8,221.7,307.4,221.2,307.2,220.7z M243.8,222.6c-1.3,1.1-2.4,2.6-3.2,4c-0.2,0.4,0.4,0.7,0.6,0.4c0.9-1.4,2-2.7,3.1-3.9
		C244.5,222.7,244.1,222.3,243.8,222.6z M238.3,229.3c-0.6,0.9-1,1.9-1.1,2.9c0,0.3,0.3,0.4,0.4,0.1c0.2-1,0.7-1.9,1.3-2.7
		C239.1,229.3,238.6,229,238.3,229.3z M238.6,225c-0.2,0.3-0.4,0.6-0.5,1c-0.1,0.2,0.2,0.4,0.4,0.2l0.6-0.9
		C239.1,225,238.7,224.7,238.6,225z M247.6,217.8c-1,0.6-1.8,1.3-2.5,2.2c-0.2,0.2,0.1,0.5,0.3,0.3c0.8-0.7,1.6-1.3,2.5-1.9
		C248.4,218.2,248.1,217.6,247.6,217.8z M284.2,208.2c-1.2-0.2-2.4-0.2-3.7-0.1c-0.3,0-0.3,0.4,0,0.4c1.2,0,2.4,0.1,3.6,0.3
		C284.5,208.9,284.6,208.3,284.2,208.2z M302.1,285.8c-1.1,0.9-2.3,1.7-3.6,2.4c-0.2,0.1,0,0.5,0.2,0.4c1.3-0.6,2.6-1.4,3.6-2.4
		C302.6,285.9,302.3,285.6,302.1,285.8z M306.3,281.7c-0.5,0.4-1,0.9-1.5,1.3c-0.1,0.1,0.1,0.3,0.2,0.2c0.5-0.4,1-0.9,1.5-1.3
		C306.6,281.8,306.4,281.6,306.3,281.7z M280.2,292.9c-0.8,0.1-1.7,0.3-2.5,0.5c-0.2,0-0.1,0.3,0,0.3c0.8-0.1,1.7-0.2,2.5-0.4
		C280.4,293.2,280.4,292.9,280.2,292.9z M237.2,268.4c-1.2-2.2-1.8-4.7-2.4-7.1c-0.1-0.4-0.7-0.4-0.7,0c-0.5,2.9,0.3,5.4,1.9,7.8
		C236.4,270,237.6,269.3,237.2,268.4z M316.4,235c-0.1-0.2-0.4-0.1-0.3,0.1c2.4,6.1,3.5,12.4,2.9,19c-0.1,0.7,1,0.7,1.1,0
		C320.9,247.4,319.8,240.8,316.4,235z"/>
	<g>
		<circle class="st10" cx="276.8" cy="251" r="40.4"/>
		<g>
			<defs>
				<path id="SVGID_7_" d="M319,292.4c0-4.1-6.4-6.2-6.4-6.2c-16.3-7.7-23-9.6-23-9.6c-0.6-1.1-1-5.8-1-5.8
					c-0.9-0.6-3.4-0.7-3.4-0.7c2-4,4.4-7.5,4.4-7.5c1.8-2.8,1.6-8.7,1.6-8.7c1-0.9,1.1-1.8,1.1-1.8c-0.3-2.3,0.6-5,0.6-5
					c0-1.1-0.9-1-0.9-1c3.7-12.9,1.6-14.2,1.6-14.2c-0.3-0.3-1-0.4-1-0.4v-0.1c0.6-0.3,0.1-1.7,0.1-1.7c-0.6-1.6-3.7-4.3-3.7-4.3
					c-5.4-6.1-21.6-5.7-21.6-5.7c0.4,1.4-2.8,5-2.8,5c-1.1,1.4-1.1,3-1.1,3c0.3,3-2.3,7.8-2.3,7.8c-0.1,3.1,2.3,10.9,2.3,10.9
					c-1.1-0.3-0.9,1.1-0.9,1.1c0.7,2.1,0.6,4.7,0.6,4.7c0,1,1.1,1.8,1.1,1.8c-0.1,5.8,1.7,8.7,1.7,8.7c1.6,2.1,4.4,7.4,4.4,7.4
					s-1.8,0-3.4,0.7c0,0,0,3.1-0.9,5.8c0,0-10.8,4-22.8,9.9c0,0-6.4,2.3-6.4,6.4L319,292.4z"/>
			</defs>
			<clipPath id="SVGID_8_">
				<use xlink:href="#SVGID_7_"  style="overflow:visible;"/>
			</clipPath>
			<circle class="st16" cx="278" cy="253.2" r="40.4"/>
		</g>
	</g>
	<path class="st10" d="M366.6,232.5c0,0.7-0.6,1.3-1.3,1.3l-22.5,0.2c-0.7,0-1.3-0.6-1.3-1.3v-0.5c0-0.7,0.6-1.3,1.3-1.3l22.5-0.2
		c0.7,0,1.3,0.6,1.3,1.3V232.5z"/>
</g>
<g>
	<g>
		<path class="st5" d="M155,40.7c-3.4,0-7.3,0.6-10.7-0.3c-0.4-0.1-0.3-0.6,0-0.7c3.3-1.3,7.3-0.9,10.7-0.6
			C156,39.1,156,40.7,155,40.7z M165.8,38.9c-2.2-0.2-4.1-0.2-6.2,0.6c-0.2,0.1-0.2,0.5,0.1,0.6c2.1,0.3,4.1,0.2,6.1,0.2
			C166.7,40.3,166.7,39,165.8,38.9z M36.2,43.5c-2.6,0.9-4.1,3-4.9,5.5c-0.1,0.3,0.3,0.5,0.5,0.2c1.1-2,3-3.4,4.9-4.6
			C37.2,44.3,36.9,43.3,36.2,43.5z M39.7,41.6c-0.2,0.1-0.3,0.1-0.5,0.2c-0.1,0.1-0.2,0.2-0.3,0.3c-0.2,0.2,0,0.4,0.2,0.4
			c0.3,0,0.6,0,0.9-0.1C40.5,42.3,40.3,41.4,39.7,41.6z M37.2,165.8c-1-0.6-1.9-1.4-2.6-2.2c-0.4-0.4-0.8-0.8-1.1-1.2
			c-0.3-0.3-0.5-0.7-0.9-0.8c-0.1,0-0.2,0-0.2,0.1c-0.5,0.8,0.5,2.4,0.9,3.1c0.8,1.1,1.9,1.9,3.2,2.5
			C37.4,167.6,38.1,166.4,37.2,165.8z M43.1,167.8c-0.8,0-1.7-0.2-2.5-0.4c-0.1-0.1-0.2,0.2-0.1,0.3c0.3,0.3,0.7,0.7,1.1,0.8
			c0.5,0.2,1,0.2,1.5,0.2C43.7,168.8,43.7,167.8,43.1,167.8z M293.7,53.7c-0.2-1.9-0.7-3.6-1.5-5.3c-0.6-1.2-1.6-3.1-3.1-3.5
			c0,0,0,0,0,0c0.1,1.3,1.1,2.5,1.6,3.7c0.7,1.7,1.2,3.5,1.5,5.3C292.3,54.8,293.8,54.6,293.7,53.7z M293.7,57.5
			c0-0.3-0.4-0.3-0.5,0c-0.1,1.1-0.2,2.2-0.3,3.3c0,0.6,1,0.6,1,0C293.9,59.6,293.8,58.6,293.7,57.5z M294.8,84.4
			c0-0.3-0.5-0.3-0.5,0c-0.6,8.5-0.9,17.1-0.5,25.7c0.1,0.9,1.4,0.9,1.5,0C295.7,101.6,295.3,93,294.8,84.4z M294.8,113.5
			c0-0.1-0.2-0.2-0.3-0.1c-1.2,1.5-1.2,4.2-1.2,6c0,0.7,1.2,0.7,1.2,0c0-1.1,0.1-2.1,0.2-3.2C294.7,115.4,294.9,114.4,294.8,113.5z
			 M294.6,79.4c0-0.4-0.6-0.4-0.7,0c0,1-0.1,2,0,3c0,0.5,0.7,0.5,0.7,0C294.6,81.4,294.6,80.4,294.6,79.4z M60,168.7
			c-2.5,0-5.5-0.5-7.8,0.2c0,0,0,0.1,0,0.1c2.4,0.8,5.4,0.4,7.8,0.5C60.5,169.5,60.5,168.7,60,168.7z M27.7,100.3
			c0-0.3-0.5-0.3-0.5,0c-0.1,2-0.1,4-0.2,6c0,0.5,0.8,0.5,0.8,0C27.9,104.3,27.8,102.3,27.7,100.3z"/>
		<g>
			<path class="st6" d="M268.2,170.6H61.1c-14.6,0-26.4-11.8-26.4-26.4V73.4C34.7,58.8,46.5,47,61.1,47h207.1
				c14.6,0,26.4,11.8,26.4,26.4v70.8C294.6,158.8,282.8,170.6,268.2,170.6z"/>
			<path class="st5" d="M263,166.1H56c-14.6,0-26.4-11.8-26.4-26.4V68.9c0-14.6,11.8-26.4,26.4-26.4H263c14.6,0,26.4,11.8,26.4,26.4
				v70.8C289.4,154.3,277.6,166.1,263,166.1z"/>
			<g>
				<defs>
					<path id="SVGID_9_" d="M263,166.1H56c-14.6,0-26.4-11.8-26.4-26.4V68.9c0-14.6,11.8-26.4,26.4-26.4H263
						c14.6,0,26.4,11.8,26.4,26.4v70.8C289.4,154.3,277.6,166.1,263,166.1z"/>
				</defs>
				<clipPath id="SVGID_10_">
					<use xlink:href="#SVGID_9_"  style="overflow:visible;"/>
				</clipPath>
				<path class="st17" d="M291.2,182.2H102.3v0c0-27.7,22.4-50.1,50.1-50.1h138.8V182.2z"/>
			</g>
			<path class="st1" d="M150.5,140.4c0.9,1.1,1.5,2.4,1.9,3.8c0.2,0.3,0.5,0.5,0.8,0.6c1.3-0.1,2.7,0.2,4.2,0.6
				c0.9,0.1,1.3,1.2,0.6,1.9c-1,1.2-2,2.2-3,3c-0.3,0.3-0.4,0.6-0.3,1c0.4,1.3,0.7,2.7,0.7,4.2c0.2,0.9-0.8,1.6-1.6,1.2
				c-1.6-0.6-2.9-1.2-3.8-2c-0.3-0.2-0.7-0.2-1,0c-1,0.9-2.3,1.5-3.8,2c-0.8,0.4-1.7-0.3-1.6-1.2c0.1-1.6,0.2-3.1,0.7-4.2
				c0.1-0.4-0.1-0.7-0.3-1c-1.2-0.7-2.1-1.7-3-3c-0.6-0.6-0.3-1.7,0.6-1.9c1.5-0.5,2.9-0.7,4.2-0.6c0.4-0.1,0.7-0.3,0.8-0.6
				c0.3-1.3,1-2.6,1.9-3.8C149,139.6,150.1,139.6,150.5,140.4z"/>
			<path class="st8" d="M151.9,144.5c-0.2-0.6-0.3-1.2-0.6-1.7c-0.3-0.5-0.7-0.9-1-1.4c-0.2-0.2-0.5,0-0.5,0.2c0,0.6,0,1.2,0.2,1.7
				c0.2,0.6,0.5,1.1,0.8,1.6C151.2,145.6,152.1,145.2,151.9,144.5z"/>
			<path class="st1" d="M179.6,140.4c0.9,1.1,1.5,2.4,1.9,3.8c0.2,0.3,0.5,0.5,0.8,0.6c1.3-0.1,2.7,0.2,4.2,0.6
				c0.9,0.1,1.3,1.2,0.6,1.9c-1,1.2-2,2.2-3,3c-0.3,0.3-0.4,0.6-0.3,1c0.4,1.3,0.7,2.7,0.7,4.2c0.2,0.9-0.8,1.6-1.6,1.2
				c-1.6-0.6-2.9-1.2-3.8-2c-0.3-0.2-0.7-0.2-1,0c-1,0.9-2.3,1.5-3.8,2c-0.8,0.4-1.7-0.3-1.6-1.2c0.1-1.6,0.2-3.1,0.7-4.2
				c0.1-0.4-0.1-0.7-0.3-1c-1.2-0.7-2.1-1.7-3-3c-0.6-0.6-0.3-1.7,0.6-1.9c1.5-0.5,2.9-0.7,4.2-0.6c0.4-0.1,0.7-0.3,0.8-0.6
				c0.3-1.3,1-2.6,1.9-3.8C178,139.6,179.2,139.6,179.6,140.4z"/>
			<path class="st8" d="M180.7,144.5c-0.2-0.6-0.3-1.2-0.6-1.7c-0.3-0.5-0.7-0.9-1-1.4c-0.2-0.2-0.5,0-0.5,0.2c0,0.6,0,1.2,0.2,1.7
				c0.2,0.6,0.5,1.1,0.8,1.6C180,145.6,180.9,145.2,180.7,144.5z"/>
			<path class="st1" d="M208.7,140.4c0.9,1.1,1.5,2.4,1.9,3.8c0.2,0.3,0.5,0.5,0.8,0.6c1.3-0.1,2.7,0.2,4.2,0.6
				c0.9,0.1,1.3,1.2,0.6,1.9c-1,1.2-2,2.2-3,3c-0.3,0.3-0.4,0.6-0.3,1c0.4,1.3,0.7,2.7,0.7,4.2c0.2,0.9-0.8,1.6-1.6,1.2
				c-1.6-0.6-2.9-1.2-3.8-2c-0.3-0.2-0.7-0.2-1,0c-1,0.9-2.3,1.5-3.8,2c-0.8,0.4-1.7-0.3-1.6-1.2c0.1-1.6,0.2-3.1,0.7-4.2
				c0.1-0.4-0.1-0.7-0.3-1c-1.2-0.7-2.1-1.7-3-3c-0.6-0.6-0.3-1.7,0.6-1.9c1.5-0.5,2.9-0.7,4.2-0.6c0.4-0.1,0.7-0.3,0.8-0.6
				c0.3-1.3,1-2.6,1.9-3.8C207.1,139.6,208.3,139.6,208.7,140.4z"/>
			<path class="st8" d="M209.8,144.5c-0.2-0.6-0.3-1.2-0.6-1.7c-0.3-0.5-0.7-0.9-1-1.4c-0.2-0.2-0.5,0-0.5,0.2c0,0.6,0,1.2,0.2,1.7
				c0.2,0.6,0.5,1.1,0.8,1.6C209.1,145.6,210,145.2,209.8,144.5z"/>
			<path class="st1" d="M237.8,140.4c0.9,1.1,1.5,2.4,1.9,3.8c0.2,0.3,0.5,0.5,0.8,0.6c1.3-0.1,2.7,0.2,4.2,0.6
				c0.9,0.1,1.3,1.2,0.6,1.9c-1,1.2-2,2.2-3,3c-0.3,0.3-0.4,0.6-0.3,1c0.4,1.3,0.7,2.7,0.7,4.2c0.2,0.9-0.8,1.6-1.6,1.2
				c-1.6-0.6-2.9-1.2-3.8-2c-0.3-0.2-0.7-0.2-1,0c-1,0.9-2.3,1.5-3.8,2c-0.8,0.4-1.7-0.3-1.6-1.2c0.1-1.6,0.2-3.1,0.7-4.2
				c0.1-0.4-0.1-0.7-0.3-1c-1.2-0.7-2.1-1.7-3-3c-0.6-0.6-0.3-1.7,0.6-1.9c1.5-0.5,2.9-0.7,4.2-0.6c0.4-0.1,0.7-0.3,0.8-0.6
				c0.3-1.3,1-2.6,1.9-3.8C236.2,139.6,237.4,139.6,237.8,140.4z"/>
			<path class="st8" d="M238.9,144.5c-0.2-0.6-0.3-1.2-0.6-1.7c-0.3-0.5-0.7-0.9-1-1.4c-0.2-0.2-0.5,0-0.5,0.2c0,0.6,0,1.2,0.2,1.7
				c0.2,0.6,0.5,1.1,0.8,1.6C238.2,145.6,239.1,145.2,238.9,144.5z"/>
			<path class="st1" d="M266.9,140.4c0.9,1.1,1.5,2.4,1.9,3.8c0.2,0.3,0.5,0.5,0.8,0.6c1.3-0.1,2.7,0.2,4.2,0.6
				c0.9,0.1,1.3,1.2,0.6,1.9c-1,1.2-2,2.2-3,3c-0.3,0.3-0.4,0.6-0.3,1c0.4,1.3,0.7,2.7,0.7,4.2c0.2,0.9-0.8,1.6-1.6,1.2
				c-1.6-0.6-2.9-1.2-3.8-2c-0.3-0.2-0.7-0.2-1,0c-1,0.9-2.3,1.5-3.8,2c-0.8,0.4-1.7-0.3-1.6-1.2c0.1-1.6,0.2-3.1,0.7-4.2
				c0.1-0.4-0.1-0.7-0.3-1c-1.2-0.7-2.1-1.7-3-3c-0.6-0.6-0.3-1.7,0.6-1.9c1.5-0.5,2.9-0.7,4.2-0.6c0.4-0.1,0.7-0.3,0.8-0.6
				c0.3-1.3,1-2.6,1.9-3.8C265.3,139.6,266.5,139.6,266.9,140.4z"/>
			<path class="st8" d="M268,144.5c-0.2-0.6-0.3-1.2-0.6-1.7c-0.3-0.5-0.7-0.9-1-1.4c-0.2-0.2-0.5,0-0.5,0.2c0,0.6,0,1.2,0.2,1.7
				c0.2,0.6,0.5,1.1,0.8,1.6C267.3,145.6,268.2,145.2,268,144.5z"/>
			<path class="st9" d="M292.1,155.9c0-0.2-0.3-0.4-0.5-0.1c-0.8,1.3-1.3,2.8-2.2,4c-0.9,1.4-2,2.6-3.3,3.7
				c-0.6,0.5,0.2,1.6,0.9,1.1C289.7,162.8,292.5,159.4,292.1,155.9z M276.9,167.6c-1.7,0.1-3.4,0.3-5,0.5c-0.3,0-0.3,0.5,0,0.5
				c1.7,0,3.4,0,5-0.1C277.5,168.5,277.4,167.5,276.9,167.6z"/>
		</g>
		<path class="st10" d="M207.7,73.8c0,1.7-1.4,3.1-3.1,3.2L149,77.4c-1.7,0-3.1-1.4-3.2-3.1V73c0-1.7,1.4-3.1,3.1-3.2l55.6-0.4
			c1.7,0,3.1,1.4,3.2,3.1V73.8z"/>
		<rect x="147" y="93.5" class="st11" width="129.5" height="3.1"/>
		<rect x="147" y="101.2" class="st11" width="129.5" height="3.1"/>
		<rect x="147" y="109.3" class="st11" width="114.9" height="3.1"/>
	</g>
	<path class="st9" d="M104.3,155.4c-0.5,1.8-2.9,7.4-3.2,8c-0.1,0.1-0.3,0.1-0.3,0c-0.1-3,0.5-6,2-8.6
		C103.3,153.9,104.6,154.4,104.3,155.4z M109.9,145.9c-0.7,0.6-1.3,1.2-1.7,2c-0.4,0.7-0.7,1.5-1,2.4c-0.1,0.4,0.5,0.7,0.7,0.3
		c0.8-1.3,1.9-2.6,3-3.7C111.4,146.2,110.5,145.4,109.9,145.9z M267.5,126.8c-1.3,0-2.5,0-3.8,0.1c-1,0.1-2,0-2.9,0.4
		c-0.2,0.1-0.1,0.3,0,0.4c1,0.3,2.1,0.2,3.1,0.2c1.2,0,2.3-0.1,3.5-0.1C268,127.7,268.1,126.8,267.5,126.8z M275.9,126.4
		c-1,0-1.9,0-2.9,0.1c-0.8,0.1-1.6,0.1-2.2,0.5c-0.2,0.1-0.2,0.4,0,0.5c0.7,0.4,1.5,0.3,2.2,0.3c1,0,1.9-0.1,2.9-0.2
		C276.7,127.5,276.7,126.4,275.9,126.4z M134.7,129c-2,0.5-4,1.1-5.8,2.2c-0.3,0.2-0.2,0.8,0.2,0.8c2-0.2,4-0.8,5.9-1.6
		C135.9,130.1,135.6,128.8,134.7,129z"/>
	<circle class="st12" cx="82.2" cy="104.4" r="40.4"/>
	<path class="st10" d="M49.9,135c-1.2-1-2.3-2.5-2.4-4.1c0-0.2,0.3-0.3,0.5-0.2c0.5,0.5,0.9,1.1,1.3,1.8c0.5,0.6,0.9,1.3,1.4,1.9
		C50.9,134.9,50.3,135.4,49.9,135z M54.7,138.5c-0.3-0.4-0.7-0.7-1-1.1c-0.3-0.3-0.7-0.6-1.1-0.8c-0.2-0.1-0.4,0.1-0.3,0.3
		c0.2,0.4,0.5,0.8,0.8,1.1c0.4,0.3,0.7,0.7,1.1,1C54.5,139.4,55,138.9,54.7,138.5z M109.3,70.1c-1.1-1.3-2.6-2.9-4.3-3.4
		c-0.3-0.1-0.4,0.3-0.3,0.4c0.5,0.7,1.3,1.2,1.9,1.8c0.6,0.6,1.3,1.2,1.9,1.9C109.1,71.4,109.8,70.6,109.3,70.1z M112.6,74.2
		c-0.5-0.8-1-1.8-1.8-2.2c-0.1-0.1-0.3,0-0.3,0.2c0,0.2,0,0.4,0.1,0.6c0.1,0.2,0.3,0.5,0.4,0.7c0.3,0.5,0.6,0.9,0.9,1.3
		C112.2,75.2,112.8,74.7,112.6,74.2z M49.2,76.1c-1.3,1.1-2.4,2.6-3.2,4c-0.2,0.4,0.4,0.7,0.6,0.4c0.9-1.4,2-2.7,3.1-3.9
		C49.9,76.2,49.5,75.8,49.2,76.1z M43.8,82.8c-0.6,0.9-1,1.9-1.1,2.9c0,0.3,0.3,0.4,0.4,0.1c0.2-1,0.7-1.9,1.3-2.7
		C44.5,82.8,44,82.5,43.8,82.8z M44,78.5c-0.2,0.3-0.4,0.6-0.5,1c-0.1,0.2,0.2,0.4,0.4,0.2l0.6-0.9C44.5,78.4,44.1,78.2,44,78.5z
		 M53,71.3c-1,0.6-1.8,1.3-2.5,2.2c-0.2,0.2,0.1,0.5,0.3,0.3c0.8-0.7,1.6-1.3,2.5-1.9C53.8,71.7,53.5,71,53,71.3z M89.7,61.7
		c-1.2-0.2-2.4-0.2-3.7-0.1c-0.3,0-0.3,0.4,0,0.4c1.2,0,2.4,0.1,3.6,0.3C89.9,62.4,90,61.8,89.7,61.7z M107.5,139.3
		c-1.1,0.9-2.3,1.7-3.6,2.4c-0.2,0.1,0,0.5,0.2,0.4c1.3-0.6,2.6-1.4,3.6-2.4C108,139.4,107.7,139.1,107.5,139.3z M111.7,135.2
		c-0.5,0.4-1,0.9-1.5,1.3c-0.1,0.1,0.1,0.3,0.2,0.2c0.5-0.4,1-0.9,1.5-1.3C112.1,135.3,111.8,135,111.7,135.2z M85.6,146.4
		c-0.8,0.1-1.7,0.3-2.5,0.5c-0.2,0-0.1,0.3,0,0.3c0.8-0.1,1.7-0.2,2.5-0.4C85.8,146.7,85.8,146.4,85.6,146.4z M42.6,121.9
		c-1.2-2.2-1.8-4.7-2.4-7.1c-0.1-0.4-0.7-0.4-0.7,0c-0.5,2.9,0.3,5.4,1.9,7.8C41.8,123.4,43,122.7,42.6,121.9z M121.8,88.4
		c-0.1-0.2-0.4-0.1-0.3,0.1c2.4,6.1,3.5,12.4,2.9,19c-0.1,0.7,1,0.7,1.1,0C126.3,100.9,125.2,94.3,121.8,88.4z"/>
	<g>
		<circle class="st10" cx="82.2" cy="104.4" r="40.4"/>
		<g>
			<defs>
				<path id="SVGID_11_" d="M124.4,145.9c0-4.1-6.4-6.2-6.4-6.2c-16.3-7.7-23-9.6-23-9.6c-0.6-1.1-1-5.8-1-5.8
					c-0.9-0.6-3.4-0.7-3.4-0.7c2-4,4.4-7.5,4.4-7.5c1.8-2.8,1.6-8.7,1.6-8.7c1-0.9,1.1-1.8,1.1-1.8c-0.3-2.3,0.6-5,0.6-5
					c0-1.1-0.9-1-0.9-1c3.7-12.9,1.6-14.2,1.6-14.2c-0.3-0.3-1-0.4-1-0.4v-0.1c0.6-0.3,0.1-1.7,0.1-1.7c-0.6-1.6-3.7-4.3-3.7-4.3
					c-5.4-6.1-21.6-5.7-21.6-5.7c0.4,1.4-2.8,5-2.8,5c-1.1,1.4-1.1,3-1.1,3c0.3,3-2.3,7.8-2.3,7.8c-0.1,3.1,2.3,10.9,2.3,10.9
					c-1.1-0.3-0.9,1.1-0.9,1.1c0.7,2.1,0.6,4.7,0.6,4.7c0,1,1.1,1.8,1.1,1.8c-0.1,5.8,1.7,8.7,1.7,8.7c1.6,2.1,4.4,7.4,4.4,7.4
					s-1.8,0-3.4,0.7c0,0,0,3.1-0.9,5.8c0,0-10.8,4-22.8,9.9c0,0-6.4,2.3-6.4,6.4L124.4,145.9z"/>
			</defs>
			<clipPath id="SVGID_12_">
				<use xlink:href="#SVGID_11_"  style="overflow:visible;"/>
			</clipPath>
			<circle class="st18" cx="83.4" cy="106.7" r="40.4"/>
		</g>
	</g>
	<path class="st10" d="M172,86c0,0.7-0.6,1.3-1.3,1.3l-22.5,0.2c-0.7,0-1.3-0.6-1.3-1.3v-0.5c0-0.7,0.6-1.3,1.3-1.3l22.5-0.2
		c0.7,0,1.3,0.6,1.3,1.3V86z"/>
</g>
<g>
	<path class="st19" d="M399.1,451.9c-0.9,18.7-21.1,51.2-39.8,50.1c-18.7-0.9-28.5-35-27.6-53.5c0.9-18.7,20.8-111.6,39.3-110.7
		C389.7,338.7,400,433.2,399.1,451.9z"/>
	<line class="st20" x1="370.3" y1="349.8" x2="360.9" y2="500.6"/>
	<path class="st1" d="M356.6,448c-4.2,9.3-7.4,19.1-9.4,29.3c-0.9,5.1-1.5,10.8,0.8,15.4c2.6,5.1,8.2,8.2,13.9,9.1
		c13.9,2.3,27.6-6.2,35.8-17.6c8.2-11.4,11.6-25.4,14.8-39c2.5-10.8,5.1-21.6,9.9-31.6c2-4.3,14-20.8,8.3-25.1
		c-7.7-6.2-30.2,0.5-44.6,16.2C374,417.5,363.8,432.2,356.6,448z"/>
	<path class="st21" d="M361.8,501.7c0,0,16.7-64.9,57-102.2"/>
	<path class="st22" d="M454.3,432.6c-1.4,2.6-4.2,4.3-6.5,5.7c-2.9,1.7-6.2,3.2-9.3,4.6c-4,1.9-8,3.7-11.9,6.2
		c-2.8,1.7-5.2,3.7-7.2,5.9c3.2-7.4,7.1-13.9,11.6-19.6c5.9-7.6,11.9-11.4,17.9-11.4c0.2,0,0.3,0,0.5,0c1.9,0,3.4,0.5,4.3,1.4
		C455.7,427.1,455.5,430.5,454.3,432.6z"/>
	<path class="st22" d="M461.1,474.7c-2.3,1.7-5.6,2.2-8.3,2.3c-3.4,0.3-6.9,0.2-10.3,0.2c-4.3,0-8.9,0-13.3,0.5
		c-3.2,0.5-6.3,1.1-9.1,2.2c6.2-5.2,12.3-9.4,18.8-12.8c8.6-4.3,15.7-5.2,21.1-2.6c0.2,0,0.3,0.2,0.3,0.2c1.7,0.8,2.8,1.9,3.4,3.1
		C464.8,470.1,463.3,473.2,461.1,474.7z"/>
	<path class="st22" d="M445.2,495.4c-2-0.3-3.7-1.5-5.2-2.8c-1.9-1.5-3.5-3.1-5.2-4.8c-2.2-2-4.3-4.2-6.8-6
		c-1.9-1.4-3.7-2.5-5.6-3.2c5.6,0.2,10.5,1.1,15.3,2.5c6.3,1.9,10.2,4.8,11.7,8.6c0,0.2,0,0.2,0.2,0.3c0.5,1.2,0.5,2.3,0.2,3.1
		C449.1,494.8,446.9,495.7,445.2,495.4z"/>
	<path class="st4" d="M399.9,502.2c0,0,0.2-39.8,48.7-73.5"/>
	<path class="st4" d="M399.9,502.2c0,0,15-31.9,55.4-31.9"/>
	<path class="st4" d="M421.9,479c0,0,7.9-0.6,24.2,11.7"/>
	<line class="st4" x1="-286.4" y1="502.2" x2="546.5" y2="502.2"/>
</g>
</svg>
