<?xml version="1.0" encoding="utf-8"?>
<!-- Generator: Adobe Illustrator 23.0.3, SVG Export Plug-In . SVG Version: 6.00 Build 0)  -->
<svg version="1.1" id="Layer_1" xmlns="http://www.w3.org/2000/svg" xmlns:xlink="http://www.w3.org/1999/xlink" x="0px" y="0px"
	 viewBox="0 0 519 502.4" style="enable-background:new 0 0 519 502.4;" xml:space="preserve">
<style type="text/css">
	.st0{fill:#DCE6EF;}
	.st1{fill:#66DAB5;}
	.st2{fill:#F5F7FF;}
	.st3{fill:#B6C2D6;}
	.st4{fill:#FFFFFF;}
	.st5{fill:none;stroke:#F3F4F6;stroke-width:4;stroke-miterlimit:10;}
	.st6{fill:none;stroke:#FFB415;stroke-width:4;stroke-miterlimit:10;}
	.st7{fill:#6AA5FE;}
	.st8{fill:none;stroke:#1A55B5;stroke-width:0.8675;stroke-linecap:round;stroke-linejoin:round;stroke-miterlimit:10;}
	.st9{fill:#FFC957;}
	.st10{fill:none;stroke:#6AA5FE;stroke-width:0.8675;stroke-linecap:round;stroke-linejoin:round;stroke-miterlimit:10;}
	.st11{fill:#1A55B5;}
	.st12{fill:none;stroke:#2A294F;stroke-width:0.7798;stroke-linecap:round;stroke-linejoin:round;stroke-miterlimit:10;}
	.st13{fill:none;stroke:#6AA5FE;stroke-linecap:round;stroke-linejoin:round;stroke-miterlimit:10;}
</style>
<path class="st0" d="M490.8,458.5c-3.7-9.4-6.4-19.4-9.4-30c-2-7.1-5.3-15.1-12.3-17.3c-6.9-2.2-14.2,2.3-18.5,8.2
	c-4.2,5.8-6.3,12.9-9.9,19.1c-6.5,11.3-18.1,16-27.7,6.1c-13.7-14.2-19.8-33.5-28.5-50.8c-6.3-12.5-11.6-27.2-19.5-38.8
	c-12.1-17.6-28.7-32.7-50.7-32.7c-14,2.1-26.3,14.5-34.6,30c-8.3,15.5-13.2,33.9-17.3,52.2c-7.5,33.4-13.1,67.5-18.6,101.6
	c0,0,278.1-3.2,278.1-3.2c-1.1,0-7.9-9.1-9.2-10.4C502,482.2,495.6,470.9,490.8,458.5z"/>
<path class="st0" d="M249.1,509.9c-6.5-24.7-105.6-56.6-113.2-80.4c-4.3-13.5-9.1-26.9-15.7-37.7c-6.6-10.8-15.4-18.7-24.2-18.7
	c-13.6,2.6-22.3,16-28.1,30.9c-3.8,9.7-5.6,21.5-8.3,31.8c-3.7,14.2-5.6,29.6-12.7,42c-4.9,8.7-12.5,6.5-17.6-1.3
	c-2.8-4.3-4.8-9.4-8-13.4c-3.2-3.9-8.1-6.5-12.2-4c-4.1,2.5-5.4,9-5.9,14.6c-0.8,8.4-1.5,16.3-2.9,23.9c-0.3,1.7-0.6,3.3-1,4.9
	L249.1,509.9z"/>
<path class="st1" d="M318.8,246.6l-110.4,0.8c-2.7,0-5,2.3-4.9,5l1.2,173.1c0,2.7,2.3,5,5,4.9l110.4-0.7c2.7,0,5-2.3,4.9-5
	l-1.2-173.1C323.8,248.8,321.6,246.6,318.8,246.6z M287.6,270l-47.7,0.3c-2.6,0-4.7-2.1-4.7-4.8c0-2.7,2.1-4.9,4.6-4.9l17.6-0.1
	c0.5-3,3.1-5.3,6.2-5.3c3.1,0,5.8,2.3,6.3,5.3l17.6-0.1c2.6,0,4.7,2.1,4.7,4.8C292.3,267.8,290.2,269.9,287.6,270z"/>
<path class="st2" d="M39.2,287.5c3.3,3.7,6.7,7.2,10.2,10.5c20.8,19.2,33.2,46,36.1,74.6c3.6,34.6,19.2,67.7,46.9,92.6
	c56.5,50.8,145.2,48.5,202.5-5.3l1.2-1.2c28.5-27.3,60.1-51.3,95-69.4c17.1-8.8,32.9-21,46.4-36.6c50.8-58.4,50.6-145.5-0.5-200.3
	c-33.3-35.6-80-50.3-125.2-44.5c-33.9,4.3-67.7-5.9-91.4-29.6l-2.1-2.1c-60.2-57.6-158.2-52.4-216,12.6C-8.4,146-9.8,232,39.2,287.5
	z"/>
<g>
	
		<image style="overflow:visible;opacity:0.75;" width="147" height="209" xlink:href="64A061FF.png"  transform="matrix(1 0 0 1 301 254.4)">
	</image>
	<g>
		<path class="st3" d="M426.4,266l-110.4,0.8c-2.7,0-5,2.3-4.9,5l1.2,173.1c0,2.7,2.3,5,5,4.9l110.4-0.7c2.7,0,5-2.3,4.9-5
			L431.4,271C431.3,268.2,429.1,266,426.4,266z"/>
	</g>
</g>
<path class="st4" d="M403,409.2c0,1.7-1.4,3.1-3.1,3.2l-55.6,0.4c-1.7,0-3.1-1.4-3.2-3.1l0-1.3c0-1.7,1.4-3.1,3.1-3.2l55.6-0.4
	c1.7,0,3.1,1.4,3.2,3.1L403,409.2z"/>
<path class="st4" d="M403.2,430.2c0,1.7-1.4,3.2-3.1,3.2l-55.6,0.4c-1.7,0-3.2-1.4-3.2-3.1l0-1.3c0-1.7,1.4-3.2,3.1-3.2l55.6-0.4
	c1.7,0,3.2,1.4,3.2,3.1L403.2,430.2z"/>
<path class="st4" d="M400.9,383.5c0-2.9-4.5-4.4-4.5-4.4c-11.5-5.4-16.2-6.8-16.2-6.8c-0.4-0.8-0.7-4.1-0.7-4.1
	c-0.6-0.4-2.4-0.5-2.4-0.5c1.4-2.8,3.1-5.3,3.1-5.3c1.3-2,1.1-6.1,1.1-6.1c0.7-0.6,0.8-1.3,0.8-1.3c-0.2-1.6,0.4-3.5,0.4-3.5
	c0-0.8-0.6-0.7-0.6-0.7c2.6-9.1,1.1-10,1.1-10c-0.2-0.2-0.7-0.3-0.7-0.3l0-0.1c0.4-0.2,0.1-1.2,0.1-1.2c-0.4-1.1-2.6-3-2.6-3
	c-3.8-4.3-15.2-4-15.2-4c0.3,1-2,3.5-2,3.5c-0.8,1-0.8,2.1-0.8,2.1c0.2,2.1-1.6,5.5-1.6,5.5c-0.1,2.2,1.6,7.7,1.6,7.7
	c-0.8-0.2-0.6,0.8-0.6,0.8c0.5,1.5,0.4,3.3,0.4,3.3c0,0.7,0.8,1.3,0.8,1.3c-0.1,4.1,1.2,6.1,1.2,6.1c1.1,1.5,3.1,5.2,3.1,5.2
	s-1.3,0-2.4,0.5c0,0,0,2.2-0.6,4.1c0,0-7.6,2.8-16.1,7c0,0-4.5,1.6-4.5,4.5L400.9,383.5z"/>
<path class="st4" d="M375.8,306.7c0,2.4-2,4.4-4.4,4.4c-2.4,0-4.4-2-4.5-4.4c0-2.4,2-4.4,4.4-4.5
	C373.8,302.3,375.8,304.3,375.8,306.7z"/>
<path class="st4" d="M394.5,306.6c0,2.4-2,4.4-4.4,4.5c-2.4,0-4.4-1.9-4.5-4.4c0-2.4,2-4.4,4.4-4.5
	C392.5,302.2,394.5,304.2,394.5,306.6z"/>
<path class="st4" d="M357.1,306.9c0,2.5-2,4.4-4.4,4.5c-2.4,0-4.4-2-4.5-4.4c0-2.4,2-4.4,4.4-4.5
	C355.1,302.4,357.1,304.4,357.1,306.9z"/>
<g>
	
		<image style="overflow:visible;opacity:0.75;" width="146" height="209" xlink:href="64A061FD.png"  transform="matrix(1 0 0 1 108 254.4)">
	</image>
	<g>
		<path class="st3" d="M232.8,266.2l-110.4,0.8c-2.7,0-5,2.3-4.9,5l1.2,173.1c0,2.7,2.3,5,5,4.9l110.4-0.7c2.7,0,5-2.3,4.9-5
			l-1.2-173.1C237.8,268.4,235.5,266.1,232.8,266.2z"/>
	</g>
</g>
<path class="st4" d="M209.5,409.3c0,1.7-1.4,3.1-3.1,3.2l-55.6,0.4c-1.7,0-3.1-1.4-3.2-3.1l0-1.3c0-1.7,1.4-3.1,3.1-3.2l55.6-0.4
	c1.7,0,3.1,1.4,3.2,3.1L209.5,409.3z"/>
<path class="st4" d="M209.6,430.3c0,1.7-1.4,3.2-3.1,3.2l-55.6,0.4c-1.7,0-3.2-1.4-3.2-3.1l0-1.3c0-1.7,1.4-3.2,3.1-3.2l55.6-0.4
	c1.7,0,3.2,1.4,3.2,3.1L209.6,430.3z"/>
<path class="st4" d="M207.4,383.6c0-2.9-4.5-4.4-4.5-4.4c-11.5-5.4-16.2-6.8-16.2-6.8c-0.4-0.8-0.7-4.1-0.7-4.1
	c-0.6-0.4-2.4-0.5-2.4-0.5c1.4-2.8,3.1-5.3,3.1-5.3c1.3-2,1.1-6.1,1.1-6.1c0.7-0.6,0.8-1.3,0.8-1.3c-0.2-1.6,0.4-3.5,0.4-3.5
	c0-0.8-0.6-0.7-0.6-0.7c2.6-9.1,1.1-10,1.1-10c-0.2-0.2-0.7-0.3-0.7-0.3l0-0.1c0.4-0.2,0.1-1.2,0.1-1.2c-0.4-1.1-2.6-3-2.6-3
	c-3.8-4.3-15.2-4-15.2-4c0.3,1-2,3.5-2,3.5c-0.8,1-0.8,2.1-0.8,2.1c0.2,2.1-1.6,5.5-1.6,5.5c-0.1,2.2,1.6,7.7,1.6,7.7
	c-0.8-0.2-0.6,0.8-0.6,0.8c0.5,1.5,0.4,3.3,0.4,3.3c0,0.7,0.8,1.3,0.8,1.3c-0.1,4.1,1.2,6.1,1.2,6.1c1.1,1.5,3.1,5.2,3.1,5.2
	s-1.3,0-2.4,0.5c0,0,0,2.2-0.6,4.1c0,0-7.6,2.8-16.1,7c0,0-4.5,1.6-4.5,4.5L207.4,383.6z"/>
<path class="st4" d="M182.3,306.9c0,2.4-2,4.4-4.4,4.4c-2.4,0-4.4-2-4.5-4.4c0-2.4,2-4.4,4.4-4.5
	C180.3,302.4,182.3,304.4,182.3,306.9z"/>
<path class="st4" d="M201.6,307.1c0,2.4-2,4.4-4.4,4.4c-2.4,0-4.4-2-4.5-4.4c0-2.4,2-4.4,4.4-4.5
	C199.6,302.6,201.6,304.6,201.6,307.1z"/>
<path class="st3" d="M221,306.7c0,2.4-2,4.4-4.4,4.5c-2.4,0-4.4-1.9-4.5-4.4c0-2.4,2-4.4,4.4-4.5C219,302.3,220.9,304.3,221,306.7z"
	/>
<path class="st4" d="M163.6,307c0,2.5-2,4.4-4.4,4.5c-2.4,0-4.4-2-4.5-4.4c0-2.4,2-4.4,4.4-4.5C161.6,302.6,163.6,304.5,163.6,307z"
	/>
<g>
	
		<image style="overflow:visible;opacity:0.75;" width="147" height="209" xlink:href="64A06203.png"  transform="matrix(1 0 0 1 193 235.4)">
	</image>
	<g>
		<path class="st1" d="M318.4,246.6l-110.4,0.8c-2.7,0-5,2.3-4.9,5l1.2,173.1c0,2.7,2.3,5,5,4.9l110.4-0.7c2.7,0,5-2.3,4.9-5
			l-1.2-173.1C323.3,248.8,321.1,246.6,318.4,246.6z"/>
	</g>
</g>
<path class="st4" d="M295,389.7c0,1.7-1.4,3.1-3.1,3.2l-55.6,0.4c-1.7,0-3.1-1.4-3.2-3.1l0-1.3c0-1.7,1.4-3.1,3.1-3.2l55.6-0.4
	c1.7,0,3.1,1.4,3.2,3.1L295,389.7z"/>
<path class="st4" d="M295.2,410.8c0,1.7-1.4,3.2-3.1,3.2l-55.6,0.4c-1.7,0-3.2-1.4-3.2-3.1l0-1.3c0-1.7,1.4-3.2,3.1-3.2l55.6-0.4
	c1.7,0,3.2,1.4,3.2,3.1L295.2,410.8z"/>
<path class="st4" d="M292.9,364c0-2.9-4.5-4.4-4.5-4.4c-11.5-5.4-16.2-6.8-16.2-6.8c-0.4-0.8-0.7-4.1-0.7-4.1
	c-0.6-0.4-2.4-0.5-2.4-0.5c1.4-2.8,3.1-5.3,3.1-5.3c1.3-2,1.1-6.1,1.1-6.1c0.7-0.6,0.8-1.3,0.8-1.3c-0.2-1.6,0.4-3.5,0.4-3.5
	c0-0.8-0.6-0.7-0.6-0.7c2.6-9.1,1.1-10,1.1-10c-0.2-0.2-0.7-0.3-0.7-0.3l0-0.1c0.4-0.2,0.1-1.2,0.1-1.2c-0.4-1.1-2.6-3-2.6-3
	c-3.8-4.3-15.2-4-15.2-4c0.3,1-2,3.5-2,3.5c-0.8,1-0.8,2.1-0.8,2.1c0.2,2.1-1.6,5.5-1.6,5.5c-0.1,2.2,1.6,7.7,1.6,7.7
	c-0.8-0.2-0.6,0.8-0.6,0.8c0.5,1.5,0.4,3.3,0.4,3.3c0,0.7,0.8,1.3,0.8,1.3c-0.1,4.1,1.2,6.1,1.2,6.1c1.1,1.5,3.1,5.2,3.1,5.2
	s-1.3,0-2.4,0.5c0,0,0,2.2-0.6,4.1c0,0-7.6,2.8-16.1,7c0,0-4.5,1.6-4.5,4.5L292.9,364z"/>
<path class="st4" d="M267.8,287.3c0,2.4-2,4.4-4.4,4.4c-2.4,0-4.4-2-4.5-4.4c0-2.4,2-4.4,4.4-4.5
	C265.8,282.9,267.8,284.8,267.8,287.3z"/>
<path class="st4" d="M286.5,287.2c0,2.4-2,4.4-4.4,4.5c-2.4,0-4.4-1.9-4.5-4.4c0-2.4,2-4.4,4.4-4.5
	C284.5,282.8,286.5,284.7,286.5,287.2z"/>
<path class="st4" d="M249.1,287.4c0,2.5-2,4.4-4.4,4.5c-2.4,0-4.4-2-4.5-4.4c0-2.4,2-4.4,4.4-4.5C247.1,283,249.1,285,249.1,287.4z"
	/>
<g>
	<g>
		<polyline class="st5" points="299.3,255 308.3,262 326.6,244.4 		"/>
	</g>
	<g>
		<polyline class="st6" points="297.3,253 306.3,260 324.6,242.4 		"/>
	</g>
</g>
<g>
	<path class="st7" d="M437,474.4c-0.5,10.8-12.3,29.7-23.1,29.2c-10.8-0.5-16.6-20.3-16-31.1c0.5-10.8,12.1-64.9,22.9-64.4
		C431.5,408.6,437.5,463.6,437,474.4z"/>
	<line class="st8" x1="420.2" y1="415.1" x2="414.7" y2="502.7"/>
	<path class="st9" d="M412.3,472.2c-2.5,5.4-4.3,11.1-5.5,17c-0.6,3-0.9,6.2,0.4,9c1.5,3,4.8,4.7,8.1,5.3c8,1.3,16.1-3.6,20.8-10.2
		c4.7-6.6,6.8-14.8,8.6-22.7c1.5-6.2,2.9-12.6,5.7-18.4c1.2-2.5,8.2-12.1,4.9-14.6c-4.5-3.5-17.6,0.3-25.9,9.4
		C422.4,454.5,416.5,462.9,412.3,472.2z"/>
	<path class="st10" d="M415.3,503.4c0,0,9.7-37.8,33.1-59.4"/>
</g>
<g>
	<path class="st11" d="M469.1,463.3c-0.8,1.5-2.4,2.5-3.8,3.3c-1.7,1-3.6,1.8-5.4,2.7c-2.3,1.1-4.7,2.2-6.9,3.6
		c-1.6,1-3,2.1-4.2,3.4c1.9-4.3,4.1-8,6.7-11.4c3.4-4.4,6.9-6.6,10.4-6.6c0.1,0,0.2,0,0.2,0c1.1,0,1.9,0.3,2.5,0.8
		C469.9,460,469.8,462,469.1,463.3z"/>
	<path class="st11" d="M473,487.7c-1.4,1-3.2,1.2-4.8,1.4c-2,0.1-4,0.1-6,0.1c-2.5,0-5.2,0-7.7,0.3c-1.9,0.2-3.7,0.6-5.3,1.2
		c3.5-3.1,7.1-5.5,10.9-7.4c5-2.5,9.1-3,12.3-1.5c0.1,0,0.1,0.1,0.2,0.1c1,0.5,1.6,1.1,1.9,1.8C475.1,485.1,474.2,486.8,473,487.7z"
		/>
	<path class="st11" d="M463.8,499.7c-1.2-0.2-2.2-0.9-3-1.6c-1.1-0.9-2.1-1.8-3-2.8c-1.3-1.2-2.6-2.4-4-3.5c-1-0.8-2.1-1.4-3.2-1.8
		c3.2,0.1,6.1,0.6,8.9,1.4c3.7,1.1,5.9,2.8,6.8,5c0,0.1,0,0.1,0.1,0.2c0.3,0.7,0.3,1.3,0.1,1.8C466,499.4,464.8,499.9,463.8,499.7z"
		/>
	<path class="st12" d="M437.5,503.6c0,0,0.1-23.1,28.3-42.7"/>
	<path class="st12" d="M437.5,503.6c0,0,8.7-18.6,32.2-18.6"/>
	<path class="st12" d="M450.2,490.2c0,0,4.5-0.3,14,6.8"/>
</g>
<g>
	<path class="st9" d="M144.1,468.6c-4.1-4.7-9.2-8.8-10.9-14.7c-1.2-4.3-0.3-8.9,0.2-13.4c0.5-4.5,0.3-9.4-2.6-12.9
		c-2.4-2.8-6.1-4.1-9.8-4.8c-3.6-0.8-7.4-1.3-10.6-3.1c-5.2-3-4.2-8.1-7-12.5c-3.1-5-10.5-11.4-16.7-8.1c-6.6,3.5-5.6,14.2-1.2,18.9
		c2.9,3.1,6.7,6.1,7.1,10.4c0.6,6.4-6.7,12.2-4.7,18.3c1.5,4.5,7.2,6.1,10,9.9c2.8,3.8,2.2,9.1,0.6,13.6c-1.6,4.4-4.2,8.5-5.2,13.1
		c-2.1,9.4,5.3,15.9,13.7,18c7.7,1.9,24.4,1,24.4,1c6-2.1,12.6-7.3,15.8-13c2.5-4.3,2.8-9.8,0.9-14.4
		C147.3,472.7,145.8,470.6,144.1,468.6z"/>
	<path class="st13" d="M94.2,409.3c0,0,28.5,44,31.6,92.9"/>
	<g>
		<path class="st7" d="M68.8,468.7c0.4-0.4,1.1-0.6,1.9-0.6c0.1,0,0.1,0,0.2,0c2.7,0,5.3,1.7,7.9,5c2,2.5,3.6,5.4,5.1,8.6
			c-0.9-0.9-2-1.8-3.2-2.5c-1.7-1-3.5-1.9-5.2-2.7c-1.4-0.6-2.8-1.3-4.1-2c-1.1-0.6-2.2-1.4-2.9-2.5C67.9,471,67.9,469.5,68.8,468.7
			z"/>
		<path class="st7" d="M64.4,487.3c0.2-0.5,0.7-1,1.5-1.4c0.1,0,0.1-0.1,0.2-0.1c2.4-1.1,5.5-0.7,9.3,1.2c2.9,1.4,5.6,3.3,8.3,5.6
			c-1.2-0.4-2.6-0.8-4-0.9c-1.9-0.2-3.9-0.2-5.9-0.2c-1.5,0-3,0-4.6-0.1c-1.2-0.1-2.6-0.3-3.7-1C64.6,489.8,63.9,488.4,64.4,487.3z"
			/>
		<path class="st7" d="M70.5,498.5c-0.1-0.4-0.1-0.8,0.1-1.4c0,0,0-0.1,0-0.1c0.7-1.7,2.4-3,5.2-3.8c2.1-0.6,4.3-1,6.7-1.1
			c-0.8,0.3-1.6,0.8-2.4,1.4c-1.1,0.8-2.1,1.7-3,2.6c-0.7,0.7-1.5,1.4-2.3,2.1c-0.6,0.5-1.4,1.1-2.3,1.2
			C71.7,499.6,70.8,499.3,70.5,498.5z"/>
		<path class="st12" d="M92.4,502.5c0,0-0.1-17.5-21.4-32.3"/>
		<path class="st12" d="M92.4,502.5c0,0-6.6-14-24.3-14"/>
		<path class="st12" d="M82.7,492.3c0,0-3.4-0.3-10.6,5.2"/>
	</g>
</g>
</svg>
